{
  "project_info": {
    "project_number": "728750113640",
    "firebase_url": "https://binnazteknikappkotlin.firebaseio.com",
    "project_id": "binnazteknikappkotlin",
    "storage_bucket": "binnazteknikappkotlin.appspot.com"
  },
  "client": [
    {
      "client_info": {
        "mobilesdk_app_id": "1:728750113640:android:d89b2fa00daab10b",
        "android_client_info": {
          "package_name": "com.example.umuryavuz.binnazteknikappkotlin"
        }
      },
      "oauth_client": [
        {
          "client_id": "728750113640-4nur8u0ukphe9ncae26dentprtqscpm9.apps.googleusercontent.com",
          "client_type": 1,
          "android_info": {
            "package_name": "com.example.umuryavuz.binnazteknikappkotlin",
            "certificate_hash": "d48426ca69d9fb3191e6125cc0893749035ddf2c"
          }
        },
        {
          "client_id": "728750113640-i4l4adhrfohb88tg4gk7q4b0g7030hh5.apps.googleusercontent.com",
          "client_type": 3
        }
      ],
      "api_key": [
        {
          "current_key": "AIzaSyD2ziLvLGTCXz5nfOA55HaMhpF9liaNlew"
        }
      ],
      "services": {
        "analytics_service": {
          "status": 1
        },
        "appinvite_service": {
          "status": 2,
          "other_platform_oauth_client": [
            {
              "client_id": "728750113640-i4l4adhrfohb88tg4gk7q4b0g7030hh5.apps.googleusercontent.com",
              "client_type": 3
            }
          ]
        },
        "ads_service": {
          "status": 2
        }
      }
    }
  ],
  "configuration_version": "1"
}